{
    "KPlugin": {
        "Description": "Close group of documents based on a common path or file extension",
        "Description[az]": "Ümumi yol və ya fayl uzantısına əsaslanan sənədlər qrupunu bağlayın",
        "Description[bg]": "Затваряне на група от документи, базирани на местополжение или файлово разширение",
        "Description[ca@valencia]": "Tanca un grup de documents basats en un camí comú o en l'extensió del fitxer",
        "Description[ca]": "Tanca un grup de documents basats en un camí comú o en l'extensió del fitxer",
        "Description[cs]": "Zavřít skupinu dokumentů podle společné cesty nebo přípony",
        "Description[de]": "Eine Gruppe von Dokumenten auf der Basis eines gemeinsamen Pfades oder einer Dateierweiterung schließen",
        "Description[el]": "Κλείσιμο ομάδας εγγράφων με βάση μια κοινή διαδρομή ή κατάληξη αρχείου",
        "Description[en_GB]": "Close group of documents based on a common path or file extension",
        "Description[eo]": "Fermi grupon de dokumentoj bazitaj sur komuna vojo aŭ dosierfinaĵo",
        "Description[es]": "Cerrar un grupo de documentos basado en una ruta común o extensión de archivo",
        "Description[eu]": "Itxi dokumentu talde bat bide-izen edo fitxategi luzapen komun batean oinarrituta",
        "Description[fi]": "Sulje tiedostoryhmiä yhteisen sijainnin tai päätteen perusteella",
        "Description[fr]": "Fermez un groupe de documents reposant sur un emplacement ou une extension de fichier communs",
        "Description[gl]": "Pecha un grupo de documentos baseado nunha ruta ou extensión de ficheiro común.",
        "Description[hu]": "Dokumentumcsoportok bezárása közös elérési út vagy kiterjesztés alapján",
        "Description[ia]": "Claude gruppo de documentos basate sur un commun percurso o extension de file",
        "Description[ie]": "Cluder un gruppe de documentes secun un comun rute o extension de file",
        "Description[it]": "Chiudi gruppo di documenti in base a un percorso comune o per estensione di file",
        "Description[ka]": "საერთო ბილიკის ან ფაილის გაფართოების მქონე დოკუმენტების ჯგუფის დახურვა",
        "Description[ko]": "공통 경로나 확장자를 기준으로 문서 그룹 닫기",
        "Description[nl]": "Groep documenten sluiten gebaseerd op een gemeenschappelijk pad of bestandsextensie",
        "Description[pl]": "Zamknij grupę dokumentów w oparciu o wspólną ścieżkę lub rozszerzenie pliku",
        "Description[pt]": "Fechar um grupo de documentos com base numa localização comum ou extensão de ficheiros",
        "Description[pt_BR]": "Decha um grupo de documentos com base em uma extensão ou caminho comuns",
        "Description[ru]": "Закрытие группы документов, в зависимости от пути или расширения",
        "Description[sk]": "Zatvorenie skupiny dokumentov na základe spoločnej cesty alebo prípony súboru",
        "Description[sl]": "Zapri skupino dokumentov, ki imajo skupno pot ali podaljšek datoteke",
        "Description[sv]": "Stäng grupp av dokument baserat på en gemensam sökväg eller filändelse",
        "Description[ta]": "ஒரே பாதையிலுள்ள அல்லது ஒரே வகையான கோப்புகளை மூடும்",
        "Description[tr]": "Aynı yol veya dosya uzantısı temelli belge grubunu kapat",
        "Description[uk]": "Закриває групу документів, які зберігаються у одному каталозі або мають однаковий суфікс назви.",
        "Description[vi]": "Đóng một nhóm các tài liệu dựa trên một đường dẫn hoặc phần mở rộng tệp chung",
        "Description[x-test]": "xxClose group of documents based on a common path or file extensionxx",
        "Description[zh_CN]": "根据路径或文件扩展名关闭一组文档",
        "Description[zh_TW]": "依共同的路徑或副檔名關閉一群文件",
        "Name": "Close Except/Like",
        "Name[az]": "Istisna olunanı/İstədiyinizi bağlayın",
        "Name[bg]": "Затваряне с изключение на",
        "Name[ca@valencia]": "Tancament excepte/com",
        "Name[ca]": "Tancament excepte/com",
        "Name[cs]": "Zavřít kromě/jako",
        "Name[de]": "Bedingtes Schließen",
        "Name[el]": "Κλείσιμο Except/Like",
        "Name[en_GB]": "Close Except/Like",
        "Name[eo]": "Fermi Krom/Kiel",
        "Name[es]": "Cerrar excepto/como",
        "Name[eu]": "Itxi Salbu/Gisako",
        "Name[fi]": "Sulje paitsi/samanlaiset",
        "Name[fr]": "Fermer les exclusions / inclusions",
        "Name[gl]": "Pechar agás/como",
        "Name[hu]": "Kivétel/hasonlók bezárása",
        "Name[ia]": "Claude Excepte/Simile",
        "Name[ie]": "Cluder exept/quam",
        "Name[it]": "Chiudi escludendo/includendo",
        "Name[ka]": "მხოლოდ/გარდა დახურვა",
        "Name[ko]": "다음을 제외한/다음과 같은 것 닫기",
        "Name[nl]": "Behalve/zoals sluiten",
        "Name[pl]": "Zamknij oprócz/podobne",
        "Name[pt]": "Fechar Excepto/Como",
        "Name[ru]": "Закрыть кроме/только…",
        "Name[sk]": "Zatvoriť okrem/ako",
        "Name[sl]": "Zapri razen/podobne",
        "Name[sv]": "Stäng förutom/som",
        "Name[tr]": "Dışındakileri/Benzerleri Kapat",
        "Name[uk]": "Додаток закриття за критерієм",
        "Name[vi]": "Đóng ngoại trừ / theo kiểu",
        "Name[x-test]": "xxClose Except/Likexx",
        "Name[zh_CN]": "批量关闭",
        "Name[zh_TW]": "關閉「例外/喜歡」",
        "ServiceTypes": [
            "KTextEditor/Plugin"
        ]
    },
    "X-KDE-Version": "4.0",
    "X-Kate-Load": "True",
    "X-Kate-Version": "2.9"
}
